%YAML 1.1
%TAG !u! tag:unity3d.com,2011:
--- !u!1045 &1
EditorBuildSettings:
  m_ObjectHideFlags: 0
  serializedVersion: 2
  m_Scenes:
  - enabled: 1
    path: Assets/menu assets/Assets/Scenes/menu.unity
    guid: 2d0c458a6c49a6f49a0636615b73c53b
  - enabled: 1
    path: Assets/test.unity
    guid: 5c6b2037b9a52884eb52434661c9e8aa
  m_configObjects: {}
